[{
   "id":1,
   "day":"2017-05-07",
   "sunrise":"06:55",
   "sunset":"21:01",
   "period":14,
   "sky_state":"Despejado",
   "rain":0,
   "rain_probability":0,
   "storm_probability":0,
   "snow":0,
   "snow_probability":0
   ,"thermal_sensation":23
   ,"relative_humidity":61,
   "wind_velocity":15,
   "wind_direction":"E",
   "temperature":23,
   "created_at":"2017-05-07T21:43:00.116+02:00",
   "updated_at":"2017-05-07T21:43:00.116+02:00",
   "copyright":"© AEMET"
},
{
   "id":2,
   "day":"2017-05-07",
   "sunrise":"06:55",
   "sunset":"21:01",
   "period":15,
   "sky_state":"Despejado",
   "rain":0,
   "rain_probability":0,
   "storm_probability":0,
   "snow":0,
   "snow_probability":0
   ,"thermal_sensation":23
   ,"relative_humidity":61,
   "wind_velocity":13,
   "wind_direction":"E",
   "temperature":23,
   "created_at":"2017-05-07T21:43:00.120+02:00",
   "updated_at":"2017-05-07T21:43:00.120+02:00",
   "copyright":"© AEMET"
},
{
   "id":3,
   "day":"2017-05-07",
   "sunrise":"06:55",
   "sunset":"21:01",
   "period":16,
   "sky_state":"Poco nuboso","rain":0
   ,"rain_probability":0,
   "storm_probability":0,
   "snow":0,
   "snow_probability":0
   ,"thermal_sensation":22
   ,"relative_humidity":60,
   "wind_velocity":10,
   "wind_direction":"E",
   "temperature":22,
   "created_at":"2017-05-07T21:43:00.123+02:00",
   "updated_at":"2017-05-07T21:43:00.123+02:00",
   "copyright":"© AEMET"
},
{
   "id":4,
   "day":"2017-05-07",
   "sunrise":"06:55",
   "sunset":"21:01",
   "period":17,
   "sky_state":"Nubes altas","rain":0
   ,"rain_probability":0,
   "storm_probability":0,
   "snow":0,
   "snow_probability":0
   ,"thermal_sensation":21
   ,"relative_humidity":63,
   "wind_velocity":10,
   "wind_direction":"E",
   "temperature":21,
   "created_at":"2017-05-07T21:43:00.126+02:00",
   "updated_at":"2017-05-07T21:43:00.126+02:00",
   "copyright":"© AEMET"
},
{
   "id":5,
   "day":"2017-05-07",
   "sunrise":"06:55",
   "sunset":"21:01",
   "period":18,
   "sky_state":"Poco n
   uboso","rain":0
   ,"rain_probability":0,
   "storm_probability":0,
   "snow":0,
   "snow_probability":0
   ,"thermal_sensation":20
   ,"relative_humidity":67,
   "wind_velocity":12,
   "wind_direction":"E",
   "temperature":20,
   "created_at":"2017-05-07T21:43:00.129+02:00",
   "updated_at":"2017-05-07T21:43:00.129+02:00",
   "copyright":"© AEMET"
},
{
   "id":6,
   "day":"2017-05-07",
   "sunrise":"06:55",
   "sunset":"21:01",
   "period":19,
   "sky_state":"Despejado",
   "rain":0,
   "rain_probability":0,
   "storm_probability":0,
   "snow":0,
   "snow_probability":0
   ,"thermal_sensation":20
   ,"relative_humidity":69,
   "wind_velocity":7,
   "wind_direction":"E",
   "temperature":20,
   "created_at":"2017-05-07T21:43:00.135+02:00",
   "updated_at":"2017-05-07T21:43:00.135+02:00",
   "copyright":"© AEMET"
},
{
   "id":7,
   "day":"2017-05-07",
   "sunrise":"06:55",
   "sunset":"21:01",
   "period":20,
   "sky_state":"Despejado",
   "rain":0,
   "rain_probability":0,
   "storm_probability":0,
   "snow":0,
   "snow_probability":0
   ,"thermal_sensation":19
   ,"relative_humidity":71,
   "wind_velocity":6,
   "wind_direction":"E",
   "temperature":19,
   "created_at":"2017-05-07T21:43:00.139+02:00",
   "updated_at":"2017-05-07T21:43:00.139+02:00",
   "copyright":"© AEMET"
},
{
   "id":8,
   "day":"2017-05-07",
   "sunrise":"06:55",
   "sunset":"21:01",
   "period":21,
   "sky_state":"Despejado",
   "rain":0,
   "rain_probability":0,
   "storm_probability":0,
   "snow":0,
   "snow_probability":0
   ,"thermal_sensation":18
   ,"relative_humidity":76,
   "wind_velocity":4,
   "wind_direction":"NE",
   "temperature":18,
   "created_at":"2017-05-07T21:43:00.141+02:00",
   "updated_at":"2017-05-07T21:43:00.141+02:00",
   "copyright":"© AEMET"
},
{
   "id":9,
   "day":"2017-05-07",
   "sunrise":"06:55",
   "sunset":"21:01",
   "period":22,
   "sky_state":"Despejado",
   "rain":0,
   "rain_probability":0,
   "storm_probability":0,
   "snow":0,
   "snow_probability":0
   ,"thermal_sensation":17
   ,"relative_humidity":79,
   "wind_velocity":4,
   "wind_direction":"NE",
   "temperature":17,
   "created_at":"2017-05-07T21:43:00.144+02:00",
   "updated_at":"2017-05-07T21:43:00.144+02:00",
   "copyright":"© AEMET"
},
{
   "id":10,
   "day":"2017-05-07",
   "sunrise":"06:55",
   "sunset":"21:01",
   "period":23,
   "sky_state":"Despejado",
   "rain":0,
   "rain_probability":0,
   "storm_probability":0,
   "snow":0,
   "snow_probability":0
   ,"thermal_sensation":16
   ,"relative_humidity":76,
   "wind_velocity":6,
   "wind_direction":"N",
   "temperature":16,
   "created_at":"2017-05-07T21:43:00.150+02:00",
   "updated_at":"2017-05-07T21:43:00.150+02:00",
   "copyright":"© AEMET"
}]
